<?xml version="1.0" encoding="utf-8"?>
<!-- Generator: Adobe Illustrator 21.1.0, SVG Export Plug-In . SVG Version: 6.00 Build 0)  -->
<svg version="1.1" id="Ebene_1" xmlns="http://www.w3.org/2000/svg" xmlns:xlink="http://www.w3.org/1999/xlink" x="0px" y="0px"
	 viewBox="0 0 292 197.5" style="enable-background:new 0 0 292 197.5;" xml:space="preserve">
<style type="text/css">
	.st0{fill:#349DCC;}
	.st1{fill:#75C8DC;}
</style>
<path class="st0" d="M289.9,4.7c-3.5-5-10.4-6.2-15.5-2.7L157.6,83.9c-3.4,2.3-7.5,3.6-11.6,3.5l0,0c-4.1,0-8.2-1.2-11.6-3.5L17.5,2
	C12.5-1.5,5.6-0.3,2,4.7c-1.3,1.8-2,4-2,6.2v175.5l0,0l0,0c0,6.1,5,11.1,11.1,11.1l0,0v0h269.7c6.1,0,11.1-5,11.1-11.1V10.9
	C291.9,8.7,291.2,6.6,289.9,4.7"/>
<path class="st1" d="M11.1,197.5L11.1,197.5L11.1,197.5h269.7c6.1,0,11.1-5,11.1-11.1V10.9c0-2.2-0.7-4.4-2-6.2
	c-3.5-5-10.4-6.2-15.5-2.7L2,192.8C4,195.6,7.4,197.5,11.1,197.5"/>
</svg>
